<svg xmlns="http://www.w3.org/2000/svg" xmlns:xlink="http://www.w3.org/1999/xlink" preserveAspectRatio="xMidYMid" width="250.97" height="55.18" viewBox="0 0 250.97 55.18">
  <defs>
    <style>
      .cls-1 {
        fill: #505050;
        fill-rule: evenodd;
      }
    </style>
  </defs>
  <path d="M250.398,32.536 C250.022,33.213 249.497,33.736 248.821,34.106 C248.144,34.477 247.380,34.662 246.528,34.662 C245.665,34.662 244.897,34.471 244.227,34.089 C243.556,33.706 243.036,33.177 242.667,32.500 C242.298,31.824 242.112,31.061 242.112,30.215 C242.112,29.368 242.298,28.606 242.667,27.929 C243.036,27.252 243.556,26.723 244.227,26.340 C244.897,25.958 245.665,25.767 246.528,25.767 C247.380,25.767 248.144,25.952 248.821,26.323 C249.497,26.693 250.022,27.216 250.398,27.894 C250.772,28.571 250.959,29.344 250.959,30.215 C250.959,31.085 250.772,31.858 250.398,32.536 ZM248.080,28.494 C247.670,28.052 247.153,27.831 246.528,27.831 C245.892,27.831 245.371,28.058 244.968,28.511 C244.564,28.965 244.363,29.532 244.363,30.215 C244.363,30.885 244.568,31.450 244.976,31.909 C245.386,32.367 245.903,32.598 246.528,32.598 C247.141,32.598 247.656,32.374 248.071,31.927 C248.486,31.480 248.693,30.909 248.693,30.215 C248.693,29.508 248.488,28.935 248.080,28.494 ZM239.097,24.690 C238.721,24.690 238.398,24.551 238.125,24.275 C237.852,23.998 237.716,23.666 237.716,23.277 C237.716,22.890 237.852,22.558 238.125,22.281 C238.398,22.005 238.721,21.866 239.097,21.866 C239.482,21.866 239.813,22.005 240.085,22.281 C240.358,22.558 240.494,22.890 240.494,23.277 C240.494,23.666 240.358,23.998 240.085,24.275 C239.813,24.551 239.482,24.690 239.097,24.690 ZM233.488,33.479 L233.453,33.479 C232.851,34.268 231.998,34.662 230.897,34.662 C230.135,34.662 229.450,34.477 228.842,34.106 C228.234,33.736 227.760,33.215 227.419,32.544 C227.079,31.874 226.909,31.103 226.909,30.232 C226.909,29.374 227.079,28.606 227.419,27.929 C227.760,27.252 228.228,26.723 228.826,26.340 C229.422,25.958 230.090,25.767 230.829,25.767 C231.885,25.767 232.721,26.138 233.334,26.879 L233.385,26.879 L233.385,21.530 L235.618,21.530 L235.618,34.521 L233.488,34.521 L233.488,33.479 ZM232.882,28.520 C232.468,28.061 231.942,27.831 231.305,27.831 C230.692,27.831 230.183,28.052 229.780,28.494 C229.376,28.935 229.175,29.520 229.175,30.249 C229.175,30.944 229.374,31.509 229.772,31.945 C230.169,32.380 230.680,32.598 231.305,32.598 C231.930,32.598 232.453,32.380 232.874,31.945 C233.295,31.509 233.505,30.944 233.505,30.249 C233.505,29.556 233.298,28.979 232.882,28.520 ZM222.955,33.462 L222.920,33.462 C222.614,33.850 222.244,34.148 221.812,34.353 C221.380,34.559 220.925,34.662 220.449,34.662 C218.414,34.662 217.397,33.473 217.397,31.097 L217.397,25.908 L219.613,25.908 L219.613,30.480 C219.613,31.255 219.729,31.802 219.963,32.121 C220.195,32.439 220.579,32.598 221.113,32.598 C221.625,32.598 222.059,32.377 222.417,31.935 C222.775,31.494 222.955,30.879 222.955,30.091 L222.955,25.908 L225.188,25.908 L225.188,34.521 L222.955,34.521 L222.955,33.462 ZM213.792,32.315 C213.911,32.492 214.096,32.580 214.346,32.580 C214.663,32.580 215.015,32.480 215.402,32.280 L215.983,34.133 C215.664,34.309 215.343,34.441 215.019,34.530 C214.696,34.618 214.278,34.662 213.766,34.662 C213.028,34.662 212.448,34.421 212.028,33.938 C211.607,33.457 211.397,32.744 211.397,31.802 L211.397,27.813 L210.408,27.813 L210.408,25.908 L211.397,25.908 L211.397,23.084 L213.612,22.836 L213.612,25.908 L215.880,25.908 L215.880,27.813 L213.612,27.813 L213.612,31.486 C213.612,31.862 213.672,32.139 213.792,32.315 ZM205.652,26.984 C206.607,27.372 207.314,27.691 207.774,27.937 C208.235,28.184 208.622,28.538 208.934,28.997 C209.246,29.456 209.402,30.061 209.402,30.814 C209.402,31.674 209.193,32.392 208.772,32.968 C208.351,33.545 207.815,33.972 207.161,34.247 C206.507,34.523 205.828,34.662 205.124,34.662 C204.317,34.662 203.533,34.497 202.772,34.168 C202.010,33.839 201.323,33.345 200.709,32.686 L202.141,30.850 C202.573,31.368 203.055,31.758 203.589,32.023 C204.123,32.289 204.647,32.421 205.158,32.421 C205.727,32.421 206.158,32.301 206.453,32.059 C206.749,31.818 206.896,31.497 206.896,31.097 C206.896,30.662 206.743,30.329 206.437,30.099 C206.129,29.871 205.578,29.614 204.783,29.332 C204.044,29.061 203.419,28.776 202.908,28.476 C202.397,28.176 201.973,27.777 201.638,27.276 C201.302,26.775 201.135,26.155 201.135,25.413 C201.135,24.755 201.312,24.152 201.664,23.604 C202.016,23.057 202.493,22.625 203.096,22.307 C203.698,21.989 204.363,21.830 205.090,21.830 C205.817,21.830 206.519,21.969 207.195,22.245 C207.871,22.522 208.504,22.914 209.096,23.419 L207.715,25.290 C206.760,24.467 205.880,24.055 205.073,24.055 C204.641,24.055 204.291,24.169 204.024,24.399 C203.757,24.628 203.624,24.943 203.624,25.343 C203.624,25.685 203.771,25.964 204.067,26.181 C204.363,26.399 204.891,26.667 205.652,26.984 ZM190.021,34.521 L186.748,25.908 L189.100,25.908 L191.061,31.698 L191.077,31.698 L193.004,25.908 L195.373,25.908 L192.118,34.521 L190.021,34.521 ZM183.892,34.106 C183.216,34.477 182.452,34.662 181.600,34.662 C180.736,34.662 179.969,34.471 179.298,34.089 C178.627,33.706 178.108,33.177 177.739,32.500 C177.369,31.824 177.184,31.061 177.184,30.215 C177.184,29.368 177.369,28.606 177.739,27.929 C178.108,27.252 178.627,26.723 179.298,26.340 C179.969,25.958 180.736,25.767 181.600,25.767 C182.452,25.767 183.216,25.952 183.892,26.323 C184.568,26.693 185.094,27.216 185.470,27.894 C185.843,28.571 186.031,29.344 186.031,30.215 C186.031,31.085 185.843,31.858 185.470,32.536 C185.094,33.213 184.568,33.736 183.892,34.106 ZM183.151,28.494 C182.741,28.052 182.225,27.831 181.600,27.831 C180.963,27.831 180.443,28.058 180.040,28.511 C179.636,28.965 179.435,29.532 179.435,30.215 C179.435,30.885 179.639,31.450 180.048,31.909 C180.458,32.367 180.975,32.598 181.600,32.598 C182.213,32.598 182.728,32.374 183.142,31.927 C183.557,31.480 183.765,30.909 183.765,30.215 C183.765,29.508 183.560,28.935 183.151,28.494 ZM173.264,29.985 C173.264,29.197 173.133,28.641 172.872,28.317 C172.610,27.993 172.207,27.831 171.661,27.831 C171.082,27.831 170.622,28.035 170.281,28.440 C169.941,28.847 169.769,29.426 169.769,30.179 L169.769,34.521 L167.536,34.521 L167.536,25.908 L169.769,25.908 L169.769,27.020 L169.804,27.020 C170.144,26.608 170.543,26.296 170.997,26.084 C171.451,25.872 171.940,25.767 172.463,25.767 C173.418,25.767 174.162,26.058 174.696,26.640 C175.230,27.222 175.497,28.144 175.497,29.402 L175.497,34.521 L173.264,34.521 L173.264,29.985 ZM163.241,33.479 L163.190,33.479 C162.906,33.868 162.553,34.163 162.133,34.363 C161.713,34.562 161.235,34.662 160.701,34.662 C159.940,34.662 159.258,34.477 158.656,34.106 C158.054,33.736 157.582,33.215 157.241,32.544 C156.900,31.874 156.730,31.103 156.730,30.232 C156.730,29.374 156.900,28.606 157.241,27.929 C157.582,27.252 158.050,26.723 158.648,26.340 C159.244,25.958 159.912,25.767 160.650,25.767 C161.684,25.767 162.497,26.138 163.087,26.879 L163.139,26.879 L163.139,25.908 L165.355,25.908 L165.355,34.521 L163.241,34.521 L163.241,33.479 ZM162.628,28.520 C162.230,28.061 161.730,27.831 161.127,27.831 C160.513,27.831 160.003,28.052 159.594,28.494 C159.184,28.935 158.979,29.520 158.979,30.249 C158.979,30.944 159.178,31.509 159.576,31.945 C159.974,32.380 160.485,32.598 161.111,32.598 C161.701,32.598 162.201,32.380 162.611,31.945 C163.019,31.509 163.224,30.944 163.224,30.249 C163.224,29.556 163.025,28.979 162.628,28.520 ZM152.826,30.073 C152.826,28.579 152.342,27.831 151.377,27.831 C150.888,27.831 150.482,28.041 150.158,28.459 C149.834,28.876 149.672,29.462 149.672,30.215 L149.672,34.521 L147.439,34.521 L147.439,30.073 C147.439,28.579 146.951,27.831 145.974,27.831 C145.451,27.831 145.027,28.041 144.703,28.459 C144.379,28.876 144.217,29.462 144.217,30.215 L144.217,34.521 L141.984,34.521 L141.984,25.908 L144.217,25.908 L144.217,27.056 L144.234,27.056 C144.553,26.631 144.927,26.311 145.360,26.093 C145.792,25.876 146.247,25.767 146.723,25.767 C147.882,25.767 148.706,26.226 149.196,27.144 L149.229,27.144 C149.570,26.697 149.987,26.355 150.482,26.120 C150.976,25.884 151.525,25.767 152.127,25.767 C153.058,25.767 153.780,26.072 154.292,26.685 C154.803,27.296 155.059,28.238 155.059,29.508 L155.059,34.521 L152.826,34.521 L152.826,30.073 ZM137.041,21.989 L139.444,21.989 L139.444,34.521 L137.041,34.521 L137.041,21.989 ZM127.904,29.985 C127.904,29.197 127.774,28.641 127.513,28.317 C127.251,27.993 126.848,27.831 126.302,27.831 C125.723,27.831 125.263,28.035 124.922,28.440 C124.581,28.847 124.410,29.426 124.410,30.179 L124.410,34.521 L122.177,34.521 L122.177,25.908 L124.410,25.908 L124.410,27.020 L124.444,27.020 C124.785,26.608 125.183,26.296 125.638,26.084 C126.092,25.872 126.581,25.767 127.103,25.767 C128.059,25.767 128.802,26.058 129.336,26.640 C129.870,27.222 130.137,28.144 130.137,29.402 L130.137,34.521 L127.904,34.521 L127.904,29.985 ZM117.762,33.462 L117.728,33.462 C117.422,33.850 117.052,34.148 116.621,34.353 C116.188,34.559 115.733,34.662 115.256,34.662 C113.221,34.662 112.205,33.473 112.205,31.097 L112.205,25.908 L114.421,25.908 L114.421,30.480 C114.421,31.255 114.537,31.802 114.771,32.121 C115.004,32.439 115.387,32.598 115.921,32.598 C116.433,32.598 116.867,32.377 117.225,31.935 C117.583,31.494 117.762,30.879 117.762,30.091 L117.762,25.908 L119.995,25.908 L119.995,34.521 L117.762,34.521 L117.762,33.462 ZM107.978,29.933 C107.978,29.167 107.845,28.626 107.578,28.308 C107.311,27.991 106.905,27.831 106.360,27.831 C105.745,27.831 105.266,28.029 104.919,28.423 C104.572,28.817 104.399,29.392 104.399,30.144 L104.399,34.521 L102.166,34.521 L102.166,21.530 L104.399,21.530 L104.399,26.950 L104.433,26.950 C104.762,26.561 105.163,26.267 105.635,26.066 C106.107,25.867 106.610,25.767 107.144,25.767 C108.098,25.767 108.849,26.052 109.394,26.623 C109.939,27.194 110.212,28.103 110.212,29.350 L110.212,34.521 L107.978,34.521 L107.978,29.933 ZM98.382,34.521 L96.405,31.097 L96.371,31.097 L95.211,32.456 L95.211,34.521 L92.978,34.521 L92.978,21.530 L95.211,21.530 L95.211,29.384 L95.228,29.384 L98.212,25.908 L100.820,25.908 L97.887,29.332 L100.871,34.521 L98.382,34.521 ZM84.795,38.016 L86.262,33.992 L82.955,25.908 L85.273,25.908 L87.318,31.237 L87.335,31.237 L89.244,25.908 L91.562,25.908 L87.080,38.016 L84.795,38.016 ZM76.528,30.956 C76.664,31.474 76.925,31.880 77.312,32.173 C77.698,32.468 78.164,32.616 78.710,32.616 C79.494,32.616 80.141,32.291 80.653,31.644 L82.102,33.038 C81.727,33.533 81.233,33.927 80.619,34.221 C80.006,34.515 79.300,34.662 78.506,34.662 C77.698,34.662 76.968,34.477 76.315,34.106 C75.662,33.736 75.150,33.213 74.781,32.536 C74.411,31.858 74.226,31.079 74.226,30.197 C74.226,29.338 74.406,28.573 74.764,27.903 C75.122,27.232 75.613,26.709 76.238,26.331 C76.863,25.955 77.568,25.767 78.352,25.767 C79.147,25.767 79.855,25.955 80.474,26.331 C81.093,26.709 81.574,27.226 81.914,27.885 C82.256,28.544 82.426,29.292 82.426,30.126 C82.426,30.586 82.409,30.862 82.375,30.956 L76.528,30.956 ZM79.588,28.194 C79.286,27.929 78.898,27.797 78.419,27.797 C77.955,27.797 77.556,27.925 77.227,28.184 C76.897,28.444 76.670,28.815 76.545,29.296 L80.209,29.296 C80.097,28.826 79.889,28.459 79.588,28.194 ZM68.653,34.645 C68.016,34.645 67.403,34.507 66.813,34.230 C66.221,33.954 65.727,33.545 65.329,33.003 L66.693,31.255 C66.921,31.574 67.196,31.832 67.519,32.033 C67.844,32.233 68.165,32.333 68.482,32.333 C68.949,32.333 69.312,32.165 69.574,31.830 C69.835,31.494 69.966,30.932 69.966,30.144 L69.966,21.989 L72.370,21.989 L72.370,30.109 C72.370,31.568 72.076,32.688 71.492,33.471 C70.905,34.254 69.959,34.645 68.653,34.645 ZM0.003,-0.015 L53.303,-0.015 L53.303,55.175 L0.003,55.175 L0.003,-0.015 ZM1.182,53.954 L52.125,53.954 L52.125,1.205 L1.182,1.205 L1.182,53.954 ZM44.291,30.983 C42.914,45.735 26.970,46.064 26.970,46.064 L26.970,46.009 L26.282,46.009 L26.282,46.064 C26.282,46.064 26.282,46.064 26.229,46.009 L26.176,46.009 C24.693,45.952 10.287,44.965 9.013,30.983 C9.013,30.983 8.166,24.947 15.160,12.390 L14.152,12.003 L15.319,9.153 L21.091,11.403 L20.137,13.706 C19.449,15.408 12.616,33.395 26.282,34.491 L26.970,34.491 C39.788,33.448 34.599,17.710 33.273,14.254 L33.061,13.651 C33.061,13.596 33.011,13.539 33.011,13.539 L33.061,13.539 L32.320,11.675 L38.149,9.536 L39.261,12.390 L38.305,12.771 C45.085,25.057 44.291,30.983 44.291,30.983 ZM12.987,28.623 C12.299,28.623 11.716,29.171 11.716,29.884 C11.716,30.544 12.299,31.092 12.987,31.092 C13.676,31.092 14.205,30.544 14.205,29.884 C14.205,29.171 13.676,28.623 12.987,28.623 ZM15.211,20.065 C14.522,20.065 13.993,20.616 13.993,21.274 C13.993,21.932 14.522,22.480 15.211,22.480 C15.899,22.480 16.484,21.932 16.484,21.274 C16.484,20.616 15.899,20.065 15.211,20.065 ZM15.899,37.068 C15.211,37.068 14.681,37.617 14.681,38.276 C14.681,38.935 15.211,39.483 15.899,39.483 C16.587,39.483 17.172,38.935 17.172,38.276 C17.172,37.617 16.587,37.068 15.899,37.068 ZM37.673,39.483 C38.361,39.483 38.941,38.935 38.941,38.276 C38.941,37.617 38.361,37.068 37.673,37.068 C36.929,37.068 36.347,37.617 36.347,38.276 C36.347,38.935 36.929,39.483 37.673,39.483 ZM38.361,20.065 C37.673,20.065 37.086,20.616 37.086,21.274 C37.086,21.932 37.673,22.480 38.361,22.480 C39.100,22.480 39.682,21.932 39.682,21.274 C39.682,20.616 39.100,20.065 38.361,20.065 ZM40.267,28.623 C39.523,28.623 38.941,29.171 38.941,29.884 C38.941,30.544 39.523,31.092 40.267,31.092 C40.955,31.092 41.535,30.544 41.535,29.884 C41.535,29.171 40.955,28.623 40.267,28.623 ZM240.204,34.521 L237.971,34.521 L237.971,25.908 L240.204,25.908 L240.204,34.521 Z" class="cls-1"/>
</svg>
